<svg width="468" height="477" viewBox="0 0 468 477" fill="none" xmlns="http://www.w3.org/2000/svg">
<g clip-path="url(#clip0_12265_8186)">
<path d="M36.8792 228.19C20.2392 121.77 109.019 14.4998 225.589 1.17976C227.039 1.00976 228.489 0.859758 229.949 0.709758C311.399 -7.37024 385.849 54.8398 407.139 102.3C428.429 149.75 484.139 194.9 463.489 282.85C442.839 370.8 386.739 417.67 255.219 431.54C123.689 445.41 99.4292 407.79 64.5092 325.62C52.4092 297.14 42.3392 263.14 36.8792 228.19Z" fill="#FFEF0A"/>
<path opacity="0.8" d="M36.8792 228.19C20.2392 121.77 109.019 14.4998 225.589 1.17976C227.039 1.00976 228.489 0.859758 229.949 0.709758C311.399 -7.37024 385.849 54.8398 407.139 102.3C428.429 149.75 484.139 194.9 463.489 282.85C442.839 370.8 386.739 417.67 255.219 431.54C123.689 445.41 99.4292 407.79 64.5092 325.62C52.4092 297.14 42.3392 263.14 36.8792 228.19Z" fill="#061C3D"/>
<path d="M426.65 244.699C426.65 244.699 301.38 165.449 140.47 266.119" stroke="#061C3D" stroke-miterlimit="10" stroke-linecap="round" stroke-linejoin="round"/>
<path d="M276.58 253.689C285.17 246.629 259.61 219.439 259.61 219.439C270.81 217.429 269.29 217.839 269.29 217.839C269.29 217.839 298.39 245.939 298.69 261.899C299 277.859 254.29 292.799 254.29 292.799L237.52 285.439L222.88 280.009C222.87 279.999 267.98 260.749 276.58 253.689Z" fill="url(#paint0_linear_12265_8186)"/>
<path d="M300.4 323.038C300.4 323.038 192.94 220.938 15.5204 288.378" stroke="#061C3D" stroke-miterlimit="10" stroke-linecap="round" stroke-linejoin="round"/>
<path d="M11.0496 418.38C11.0496 418.38 62.4896 365.2 148.62 335.14C234.75 305.08 378.68 326.47 441.1 369.82" stroke="#061C3D" stroke-miterlimit="10" stroke-linecap="round" stroke-linejoin="round"/>
<path d="M341.48 393.9C351.95 397.58 361.22 400.75 369.51 403.49C339.89 417.34 302.41 426.56 255.22 431.54C244.8 432.64 235.06 433.41 225.93 433.87C165.69 389.88 138.12 338.9 138.12 338.9C136.06 339.57 171.67 323.91 211.83 322.52C211.82 322.51 262.04 366 341.48 393.9Z" fill="url(#paint1_linear_12265_8186)"/>
<path d="M304.979 476.35C189.419 433.77 138.109 338.89 138.109 338.89C136.049 339.56 171.659 323.9 211.819 322.51C211.819 322.51 262.039 366 341.479 393.9C429.499 424.82 434.499 420.26 455.689 420.26" stroke="#061C3D" stroke-miterlimit="10" stroke-linecap="round" stroke-linejoin="round"/>
<path d="M113.37 349.18C94.6497 356.75 73.5998 338.39 75.0898 318.82C76.5498 299.79 100.35 289.54 115.28 283.26C154.91 266.6 180.76 269.48 180.76 269.48C180.76 269.48 140.56 262.02 98.6398 267.18C62.3398 271.65 24.5797 293.61 9.20975 327.91C0.949753 346.36 0.619766 366.84 2.19977 386.65C3.98976 409.06 11.0398 418.39 11.0398 418.39C11.0398 418.39 61.6198 377.7 113.37 349.18Z" fill="url(#paint2_linear_12265_8186)"/>
<path d="M277.789 221.339L280.029 140.699" stroke="#061C3D" stroke-width="2" stroke-miterlimit="10" stroke-linecap="round" stroke-linejoin="round"/>
<path d="M269.198 150.857L261.438 156.047L264.178 158.767L261.318 163.047L272.318 160.437L269.198 150.857Z" fill="#FFEF0A" stroke="#061C3D" stroke-miterlimit="10" stroke-linecap="round" stroke-linejoin="round"/>
<path d="M269.518 159.367L272.318 160.437L269.198 150.857L269.518 159.367Z" fill="#061C3D" stroke="#061C3D" stroke-miterlimit="10" stroke-linecap="round" stroke-linejoin="round"/>
<path d="M279.699 141.988L268.619 146.798L269.519 159.368L279.319 155.898L279.699 141.988Z" fill="#FFEF0A" stroke="#061C3D" stroke-miterlimit="10" stroke-linecap="round" stroke-linejoin="round"/>
<path d="M210.44 232.02L212.09 179.74" stroke="#061C3D" stroke-miterlimit="10" stroke-linecap="round" stroke-linejoin="round"/>
<path d="M204.12 187.209L198.41 191.029L200.42 193.039L198.32 196.189L206.41 194.269L204.12 187.209Z" fill="#FFEF0A" stroke="#061C3D" stroke-miterlimit="10" stroke-linecap="round" stroke-linejoin="round"/>
<path d="M204.35 193.479L206.41 194.269L204.12 187.209L204.35 193.479Z" fill="#FFEF0A" stroke="#061C3D" stroke-miterlimit="10" stroke-linecap="round" stroke-linejoin="round"/>
<path d="M211.85 180.689L203.69 184.229L204.35 193.479L211.57 190.929L211.85 180.689Z" fill="#FFEF0A" stroke="#061C3D" stroke-miterlimit="10" stroke-linecap="round" stroke-linejoin="round"/>
<path d="M270.351 15.6895C274.021 19.1695 276.181 22.8095 278.351 24.9795C283.101 29.7295 288.301 20.6295 298.161 23.4995C311.281 27.3295 310.801 36.0595 313.171 37.6395C315.541 39.2195 327.421 32.8895 332.961 36.0595C338.501 39.2295 342.461 46.3495 342.461 46.3495H252.271" stroke="#718096" stroke-miterlimit="10" stroke-linecap="round" stroke-linejoin="round"/>
<path d="M242.13 46.3493H186.54C186.54 46.3493 189.71 32.8993 198.41 29.7293C207.12 26.5593 209.98 34.6893 212.69 35.6993C215.4 36.7093 215.82 34.4693 215.82 34.4693C215.82 34.4693 227.7 5.18929 248.28 6.77929C255.19 7.30929 260.31 8.99929 264.25 11.1893" stroke="#718096" stroke-miterlimit="10" stroke-linecap="round" stroke-linejoin="round"/>
<path d="M69.7199 153.4C72.1299 155.48 73.4399 157.78 74.7599 159.09C77.3799 161.71 80.2599 156.69 85.6999 158.27C92.9399 160.38 92.6799 165.21 93.9899 166.08C95.2999 166.95 101.86 163.46 104.92 165.21C107.98 166.96 110.17 170.89 110.17 170.89H52.2299" stroke="#718096" stroke-miterlimit="10" stroke-linecap="round" stroke-linejoin="round"/>
<path d="M47.4998 170.9H24.0498C24.0498 170.9 25.7998 163.471 30.6098 161.721C35.4198 159.971 36.9998 164.461 38.4998 165.021C39.9898 165.581 40.2299 164.34 40.2299 164.34C40.2299 164.34 46.7898 148.16 58.1498 149.04C60.9498 149.26 63.2198 149.821 65.0898 150.581" stroke="#718096" stroke-miterlimit="10" stroke-linecap="round" stroke-linejoin="round"/>
<path d="M229.08 193.07C229.08 193.07 232.92 183.59 239.59 184.1C246.25 184.61 247.79 188.46 249.33 189.99C250.87 191.53 252.55 188.58 255.75 189.51C260 190.75 259.84 193.58 260.61 194.09C261.38 194.6 265.22 192.55 267.02 193.58C268.81 194.61 270.1 196.91 270.1 196.91H219.61C219.61 196.91 220.64 192.55 223.45 191.53C226.26 190.51 227.2 193.14 228.07 193.46C228.94 193.8 229.08 193.07 229.08 193.07Z" stroke="#718096" stroke-miterlimit="10" stroke-linecap="round" stroke-linejoin="round"/>
<path d="M403.88 117.679C403.88 117.679 407.72 108.199 414.39 108.709C421.05 109.219 422.59 113.069 424.13 114.599C425.67 116.139 427.35 113.189 430.55 114.119C434.8 115.359 434.64 118.189 435.41 118.699C436.18 119.209 440.02 117.159 441.82 118.189C443.61 119.219 444.9 121.519 444.9 121.519H394.4C394.4 121.519 395.43 117.159 398.24 116.139C401.06 115.109 401.99 117.749 402.86 118.069C403.75 118.409 403.88 117.679 403.88 117.679Z" stroke="#718096" stroke-miterlimit="10" stroke-linecap="round" stroke-linejoin="round"/>
<path d="M335.27 89.8597C335.27 89.8597 332.99 95.9097 332.53 98.9897C332.07 102.07 330.79 103.74 331.13 104.65C331.47 105.56 332.61 107.62 332.61 108.3C332.61 108.98 330.58 114.4 329.67 116.34C328.76 118.28 331.38 118.85 332.18 119.99C332.98 121.13 333.21 123.76 333.55 127.07C333.89 130.38 332.87 132.21 333.66 133.92C334.46 135.63 339.6 135.86 341.76 135.29C343.93 134.72 344.96 133.69 344.96 133.69L345.64 136.54C345.64 136.54 351 132.32 356.48 129.92C361.96 127.52 370.98 125.13 370.98 125.13L370.41 118.74C370.41 118.74 376.46 109.72 378.86 102.19C381.26 94.6597 376.92 86.0897 374.41 82.7797C371.9 79.4697 359.46 76.9597 353.06 76.8397C346.67 76.7297 336.51 81.6297 336.05 81.7497C335.59 81.8597 331.71 80.8397 331.6 82.3197C331.49 83.7997 332.51 85.7397 332.51 85.7397C332.51 85.7397 327.6 83.4597 328.06 86.0797C328.54 88.7197 334.25 90.1997 335.27 89.8597Z" fill="white" stroke="#061C3D" stroke-miterlimit="10" stroke-linecap="round" stroke-linejoin="round"/>
<path d="M334.1 110.32C333.741 110.32 333.45 109.447 333.45 108.37C333.45 107.293 333.741 106.42 334.1 106.42C334.459 106.42 334.75 107.293 334.75 108.37C334.75 109.447 334.459 110.32 334.1 110.32Z" fill="#061C3D"/>
<path d="M332.23 104.14C332.23 104.14 333.14 102.71 334.83 104.53" stroke="#061C3D" stroke-miterlimit="10" stroke-linecap="round" stroke-linejoin="round"/>
<path d="M333.67 133.92C332.87 132.21 333.9 130.38 333.56 127.07C333.22 123.76 332.99 121.13 332.19 119.99C334.47 119.19 339.15 122.62 339.72 121.82C340.29 121.02 340.75 106.75 340.4 104.58C340.05 102.41 337.09 102.41 335.83 99.6697C334.57 96.9297 338.8 93.8497 339.03 92.0197C339.26 90.1897 335.26 89.8497 335.26 89.8497C334.23 90.1897 328.52 88.7097 328.07 86.0797C327.61 83.4497 332.52 85.7397 332.52 85.7397C332.52 85.7397 331.49 83.7997 331.61 82.3197C331.72 80.8397 335.61 81.8597 336.06 81.7497C336.52 81.6397 346.68 76.7297 353.07 76.8397C359.46 76.9497 371.9 79.4697 374.42 82.7797C376.93 86.0897 381.27 94.6497 378.87 102.19C376.83 108.61 372.14 116.1 370.8 118.17C370.23 118.54 369.79 118.79 369.51 118.86C367.34 119.43 362.78 120.69 357.07 119.66C351.36 118.63 346.8 116.58 347.6 114.98C348.4 113.38 348.86 106.76 347.03 103.68C345.2 100.6 343.15 105.28 343.61 110.87C344.07 116.46 345.32 120 345.66 123.54C346 127.08 344.97 133.7 344.97 133.7C344.97 133.7 343.94 134.73 341.77 135.3C339.61 135.86 334.47 135.63 333.67 133.92Z" fill="#061C3D" stroke="#061C3D" stroke-miterlimit="10" stroke-linecap="round" stroke-linejoin="round"/>
<path d="M344.2 135.49C344.2 135.49 343.68 133.15 352.78 128.86C361.89 124.57 371.51 122.75 372.68 123.27C373.85 123.79 375.15 126.26 375.15 126.26C375.15 126.26 365.52 127.82 357.59 131.85C349.66 135.88 342.89 139.39 342.89 139.39L344.2 135.49Z" fill="white" stroke="#061C3D" stroke-miterlimit="10" stroke-linecap="round" stroke-linejoin="round"/>
<path d="M339.12 141.86C339.12 141.86 340.29 138.87 344.45 136.79C348.61 134.71 352.98 130.14 369.94 126.38C373.16 125.67 374.23 125.86 375.14 126.25C376.05 126.64 378.65 129.11 379.82 130.93C380.99 132.75 380.99 132.75 380.99 132.75C380.99 132.75 369.93 132.62 362.26 134.96C354.59 137.3 336.77 144.2 336.77 144.2L339.12 141.86Z" fill="#FFEF0A" stroke="#061C3D" stroke-miterlimit="10" stroke-linecap="round" stroke-linejoin="round"/>
<path d="M302.1 270.571C302.1 270.571 306.1 273.961 305.02 276.571C303.94 279.191 301.63 283.031 301.63 283.031L299.94 281.181C299.94 281.181 302.25 275.951 301.79 275.181C301.33 274.411 290.25 267.951 290.25 267.951L287.02 274.721L285.33 273.341C285.33 273.341 288.1 266.261 289.18 265.651C290.26 265.031 299.33 267.501 302.1 270.571Z" fill="#061C3D" stroke="#061C3D" stroke-miterlimit="10" stroke-linecap="round" stroke-linejoin="round"/>
<path d="M299.641 253.799C299.641 253.799 289.481 263.799 288.871 264.419C288.251 265.039 287.791 267.339 288.251 268.569C288.711 269.799 297.331 276.569 299.021 277.339C300.711 278.109 301.641 275.799 301.791 275.189C301.941 274.579 302.711 272.879 302.871 272.419C303.021 271.959 307.181 267.339 308.411 263.799C309.641 260.259 309.791 258.879 309.791 258.879L299.641 253.799Z" fill="white" stroke="#061C3D" stroke-miterlimit="10" stroke-linecap="round" stroke-linejoin="round"/>
<path d="M420.939 260.949C420.939 260.949 418.849 265.769 418.369 266.249C417.889 266.729 413.229 271.709 412.749 272.989C412.269 274.269 412.749 278.609 410.979 281.819C409.209 285.029 410.339 286.309 412.259 285.669C414.189 285.029 415.629 281.179 415.629 281.179C415.629 281.179 413.859 287.599 413.539 288.719C413.219 289.839 408.399 291.129 409.209 292.249C410.009 293.369 418.519 293.859 420.449 293.689C422.379 293.529 425.909 289.039 427.029 288.389C428.149 287.749 431.039 275.549 431.849 273.299C432.649 271.049 433.939 261.259 433.939 261.259L420.939 260.949Z" fill="white" stroke="#061C3D" stroke-miterlimit="10" stroke-linecap="round" stroke-linejoin="round"/>
<path d="M422.71 271.219C422.71 271.219 422.23 276.199 423.19 278.759C424.15 281.329 423.99 284.219 423.99 284.219C423.99 284.219 422.22 288.709 421.58 289.199C420.94 289.679 413.88 290.159 415 291.289" stroke="#061C3D" stroke-miterlimit="10" stroke-linecap="round" stroke-linejoin="round"/>
<path d="M342.95 430.169C342.95 430.169 338.8 433.339 336.82 434.519C334.84 435.709 326.33 436.499 325.74 438.079C325.15 439.659 326.64 441.149 327.47 441.889C328.38 442.709 334.25 444.889 338.8 444.409C340.61 444.219 342.16 444.609 343.55 444.809C344.93 445.009 354.63 446.189 358.78 446.589C362.93 446.989 363.92 443.619 364.12 439.469C364.32 435.319 364.12 430.569 364.12 430.569L347.5 428.199L342.95 430.169Z" fill="white" stroke="#061C3D" stroke-miterlimit="10" stroke-linecap="round" stroke-linejoin="round"/>
<path d="M337.38 441.78C340.95 441.55 343.49 442.47 353.29 442.93C358.84 443.19 362.02 442.9 363.74 442.59C363.16 445.15 361.82 446.87 358.78 446.59C354.63 446.19 344.93 445.01 343.55 444.81C342.17 444.61 340.62 444.22 338.8 444.41C334.25 444.89 328.38 442.71 327.47 441.89C326.82 441.31 325.78 440.27 325.64 439.08C328.71 441.12 334.53 441.96 337.38 441.78Z" fill="white" stroke="#061C3D" stroke-miterlimit="10" stroke-linecap="round" stroke-linejoin="round"/>
<path d="M407.65 267.4C407.65 267.4 403.3 283.23 397.96 297.08C392.62 310.93 385.69 331.7 385.69 331.7L380.74 361.77C380.74 361.77 379.95 376.81 377.18 387.89C374.41 398.97 363.72 432.54 363.72 432.54C363.72 432.54 359.96 434.12 355.01 433.92C350.06 433.72 342.94 430.16 342.94 430.16C342.94 430.16 342.35 425.61 342.74 423.63C343.14 421.65 345.51 420.66 346.1 419.08C346.69 417.5 354.22 371.27 354.22 371.27C354.22 371.27 356.59 338.43 357.39 332.1C358.18 325.77 360.16 272.35 360.16 272.35L407.65 267.4Z" fill="#061C3D" stroke="#061C3D" stroke-miterlimit="10" stroke-linecap="round" stroke-linejoin="round"/>
<path d="M441.83 405.141C441.83 405.141 456.91 408.051 460.69 409.251C464.46 410.451 464.46 412.681 463.6 416.791C462.74 420.901 461.03 422.961 460.34 423.471C459.65 423.981 459.14 430.501 457.25 434.611C455.36 438.721 451.08 446.951 447.14 449.011C443.2 451.071 438.91 451.071 438.4 450.381C437.89 449.691 439.43 444.891 439.43 444.891L443.37 432.211C443.37 432.211 438.74 419.701 438.06 419.011C437.37 418.321 433.95 414.721 433.95 414.721L441.83 405.141Z" fill="white" stroke="#061C3D" stroke-miterlimit="10" stroke-linecap="round" stroke-linejoin="round"/>
<path d="M447.15 449.021C443.21 451.081 438.92 451.081 438.41 450.391C438.26 450.191 438.29 449.641 438.4 448.971C441.9 448.801 447.82 447.991 450.24 444.221C453.33 439.421 456.41 429.141 457.78 423.481C458.85 419.081 460.02 412.071 460.49 409.191C460.56 409.211 460.63 409.231 460.7 409.251C464.47 410.451 464.47 412.681 463.61 416.791C462.75 420.901 461.04 422.961 460.35 423.471C459.66 423.981 459.15 430.501 457.26 434.611C455.37 438.721 451.09 446.961 447.15 449.021Z" fill="white" stroke="#061C3D" stroke-miterlimit="10" stroke-linecap="round" stroke-linejoin="round"/>
<path d="M392.22 271.751C392.22 271.751 386.48 279.271 385.89 280.261C385.3 281.251 381.14 318.841 380.75 322.601C380.35 326.361 380.75 331.701 380.75 331.701C380.75 331.701 394.66 345.581 403.76 356.851C412.86 368.131 442.48 404.571 442.48 404.571L429.51 424.811C429.51 424.811 413.26 411.771 401.61 400.671C383.17 383.101 365.82 364.531 364.63 363.541C363.44 362.551 355.44 354.071 354.85 351.701C354.26 349.331 347.91 316.061 345.73 305.381C343.55 294.701 340.59 265.811 340.59 265.811L395 267.191" fill="#061C3D"/>
<path d="M392.22 271.751C392.22 271.751 386.48 279.271 385.89 280.261C385.3 281.251 381.14 318.841 380.75 322.601C380.35 326.361 380.75 331.701 380.75 331.701C380.75 331.701 394.66 345.581 403.76 356.851C412.86 368.131 442.48 404.571 442.48 404.571L429.51 424.811C429.51 424.811 413.26 411.771 401.61 400.671C383.17 383.101 365.82 364.531 364.63 363.541C363.44 362.551 355.44 354.071 354.85 351.701C354.26 349.331 347.91 316.061 345.73 305.381C343.55 294.701 340.59 265.811 340.59 265.811L395 267.191" stroke="#061C3D" stroke-miterlimit="10" stroke-linecap="round" stroke-linejoin="round"/>
<path d="M379.841 130.939C379.841 130.939 389.471 136.009 394.541 138.479C399.611 140.949 416.521 146.019 418.211 148.759C419.901 151.489 419.641 155.779 419.641 155.779C419.641 155.779 436.241 201.479 436.651 209.449C437.061 217.419 435.421 262.769 435.421 262.769C435.421 262.769 434.191 264.609 427.661 264.399C421.121 264.199 418.471 262.969 418.471 262.969C418.471 262.969 415.201 217.209 414.591 214.559C413.981 211.899 412.961 209.659 412.961 209.659L405.811 195.359C405.811 195.359 403.361 210.069 403.361 210.679C403.361 211.289 416.841 266.449 416.841 266.449C416.841 266.449 416.841 270.129 392.941 273.399C369.041 276.669 348.201 278.709 347.181 278.709C346.161 278.709 340.641 269.519 340.641 269.519C340.641 269.519 339.211 274.629 339.621 275.239C340.031 275.849 335.531 274.219 334.511 273.399C333.491 272.579 330.421 270.129 330.421 270.129C330.421 270.129 336.751 234.989 336.751 232.339C336.751 229.679 335.121 220.079 335.121 220.079L311.421 263.389C311.421 263.389 311.421 263.999 305.701 260.729C299.981 257.459 297.121 254.189 297.121 254.189L316.321 206.999C316.321 206.999 320.811 154.909 321.221 152.249C321.631 149.589 320.611 148.979 323.061 147.759C325.511 146.529 336.771 144.209 336.771 144.209C336.771 144.209 355.301 137.099 362.261 134.969C369.221 132.839 379.841 130.939 379.841 130.939Z" fill="#FFEF0A" stroke="#061C3D" stroke-miterlimit="10" stroke-linecap="round" stroke-linejoin="round"/>
<path d="M405.811 195.349L412.551 159.189L409.691 202.299L405.811 195.349Z" fill="#061C3D" stroke="#061C3D" stroke-miterlimit="10" stroke-linecap="round" stroke-linejoin="round"/>
<path d="M374.211 180.619C373.411 182.139 372.511 183.529 371.491 184.729" stroke="#061C3D" stroke-miterlimit="10" stroke-linecap="round" stroke-linejoin="round"/>
<path d="M380.271 153.27C380.271 153.27 379.861 168.03 375.171 178.62" stroke="#061C3D" stroke-miterlimit="10" stroke-linecap="round" stroke-linejoin="round"/>
<path d="M383.33 165.119C383.33 165.119 381.9 171.659 378.22 177.989" stroke="#061C3D" stroke-miterlimit="10" stroke-linecap="round" stroke-linejoin="round"/>
<path d="M383.182 226.449C374.722 224.339 362.972 221.469 358.002 220.469C349.832 218.839 369.242 220.469 369.242 220.469" stroke="#061C3D" stroke-miterlimit="10" stroke-linecap="round" stroke-linejoin="round"/>
<path d="M392.73 228.85C392.73 228.85 391.06 228.43 388.42 227.76" stroke="#061C3D" stroke-miterlimit="10" stroke-linecap="round" stroke-linejoin="round"/>
<path d="M335.12 220.069C335.12 220.069 339.82 212.309 340.23 210.469C340.64 208.629 343.91 188.609 343.91 188.609C343.91 188.609 341.66 220.479 340.85 224.769C340.03 229.059 336.76 232.329 336.76 232.329L335.12 220.069Z" fill="#061C3D" stroke="#061C3D" stroke-miterlimit="10" stroke-linecap="round" stroke-linejoin="round"/>
<path d="M345.961 179.91C345.511 182.48 345.131 184.12 345.131 184.12" stroke="#061C3D" stroke-miterlimit="10" stroke-linecap="round" stroke-linejoin="round"/>
<path d="M338.192 148.77C338.192 148.77 346.162 150.81 347.182 160.82C347.722 166.07 347.132 172.22 346.452 176.88" stroke="#061C3D" stroke-miterlimit="10" stroke-linecap="round" stroke-linejoin="round"/>
<path d="M349.631 160.42C349.631 160.42 349.431 168.39 347.591 174.72" stroke="#061C3D" stroke-miterlimit="10" stroke-linecap="round" stroke-linejoin="round"/>
<path d="M273.479 266.569C273.479 266.569 313.799 287.649 315.029 289.189C316.259 290.729 315.489 293.189 315.179 294.269C314.869 295.349 305.179 334.889 303.949 335.509C302.719 336.129 298.869 334.129 298.869 334.129C298.869 334.129 294.559 336.749 293.479 336.279C292.399 335.819 255.929 313.199 253.929 311.349C251.929 309.499 252.079 308.119 252.699 306.729C253.319 305.349 262.699 284.259 262.699 284.259C262.699 284.259 261.619 282.569 262.239 281.179C262.859 279.799 267.929 269.639 269.009 268.099C270.099 266.569 269.479 264.879 273.479 266.569Z" fill="#030E1E" stroke="#061C3D" stroke-miterlimit="10" stroke-linecap="round" stroke-linejoin="round"/>
<path d="M315.179 294.269C314.869 295.349 305.179 334.889 303.949 335.509C302.719 336.129 298.869 334.129 298.869 334.129C298.869 334.129 294.779 336.609 293.579 336.299C296.599 328.399 308.229 297.409 310.259 292.269C311.979 287.909 313.789 288.339 314.599 288.839C314.749 288.939 314.859 289.029 314.939 289.089C314.959 289.109 314.969 289.119 314.979 289.129C314.999 289.149 315.019 289.169 315.029 289.179C316.259 290.729 315.489 293.189 315.179 294.269Z" fill="#061C3D" stroke="#061C3D" stroke-miterlimit="10" stroke-linecap="round" stroke-linejoin="round"/>
<path d="M302.869 310.12L263.629 285.5" stroke="#061C3D" stroke-miterlimit="10" stroke-linecap="round" stroke-linejoin="round"/>
<path d="M284.719 296.579L281.949 301.349L277.939 298.419L280.559 293.959L284.719 296.579Z" fill="#FFEF0A" stroke="#061C3D" stroke-miterlimit="10" stroke-linecap="round" stroke-linejoin="round"/>
</g>
<defs>
<linearGradient id="paint0_linear_12265_8186" x1="238.249" y1="220.149" x2="294.352" y2="242.596" gradientUnits="userSpaceOnUse">
<stop stop-color="#FFEF0A" stop-opacity="0.32"/>
<stop offset="1" stop-color="#793FCA" stop-opacity="0.12"/>
</linearGradient>
<linearGradient id="paint1_linear_12265_8186" x1="184.961" y1="326" x2="303.461" y2="423.5" gradientUnits="userSpaceOnUse">
<stop stop-color="#FFEF0A" stop-opacity="0.32"/>
<stop offset="1" stop-color="#793FCA" stop-opacity="0.12"/>
</linearGradient>
<linearGradient id="paint2_linear_12265_8186" x1="37.8039" y1="270.145" x2="164.491" y2="328.897" gradientUnits="userSpaceOnUse">
<stop stop-color="#FFEF0A" stop-opacity="0.32"/>
<stop offset="1" stop-color="#793FCA" stop-opacity="0.12"/>
</linearGradient>
<clipPath id="clip0_12265_8186">
<rect width="467.04" height="476.85" fill="white" transform="matrix(-1 0 0 1 468 0)"/>
</clipPath>
</defs>
</svg>
